"No probss",
      "Thank you",
      "Okii po wait la",
     "Bulig na kasi ako han PE",
      "An kanan iyo talaga section",
      "or an PE la po?",
      "For overall ba?",
      "You can now message and call each other and see info like Active Status and when you've read messages.",
      "Slrr po",
      Pwede ako magpa add han iyo GC han AI24?",
      "Hi good afternoon",
      