"Hoy!!!",
     "Gcash pa kaya haha",
      "Waray ngani ak cash",
      "my gcash ka daw",
      "nayakan boco",
      "Ano?",
      "nanay",
      "rina",
      "Ano?",
      "nanay",
      "rinaaaa",
     "agii",
      "agiii",
      